\relax 
\providecommand\hyper@newdestlabel[2]{}
\providecommand\BKM@entry[2]{}
\providecommand*{\memsetcounter}[2]{}
\providecommand\HyperFirstAtBeginDocument{\AtBeginDocument}
\HyperFirstAtBeginDocument{\ifx\hyper@anchor\@undefined
\global\let\oldcontentsline\contentsline
\gdef\contentsline#1#2#3#4{\oldcontentsline{#1}{#2}{#3}}
\global\let\oldnewlabel\newlabel
\gdef\newlabel#1#2{\newlabelxx{#1}#2}
\gdef\newlabelxx#1#2#3#4#5#6{\oldnewlabel{#1}{{#2}{#3}}}
\AtEndDocument{\ifx\hyper@anchor\@undefined
\let\contentsline\oldcontentsline
\let\newlabel\oldnewlabel
\fi}
\fi}
\global\let\hyper@last\relax 
\gdef\HyperFirstAtBeginDocument#1{#1}
\providecommand*\HyPL@Entry[1]{}
\catcode `:\active 
\catcode `;\active 
\catcode `!\active 
\catcode `?\active 
\catcode `"\active 
\catcode `<\active 
\catcode `>\active 
\@nameuse{es@quoting}
\citation{abnt-url-package=url}
\HyPL@Entry{0<</S/D>>}
\@writefile{toc}{\changetocdepth  {4}}
\select@language{brazil}
\@writefile{toc}{\select@language{brazil}}
\@writefile{lof}{\select@language{brazil}}
\@writefile{lot}{\select@language{brazil}}
\BKM@entry{id=1,dest={6368617074657262312E30},srcline={14}}{466F6C686120646520726F73746F}
\HyPL@Entry{2<</S/D>>}
\BKM@entry{id=2,dest={6368617074657262322E30},srcline={2}}{466F6C6861206465206170726F76615C3334375C3334336F}
\BKM@entry{id=3,dest={6368617074657262332E30},srcline={2}}{446564696361745C333633726961}
\BKM@entry{id=4,dest={6368617074657262352E30},srcline={2}}{41677261646563696D656E746F73}
\@writefile{toc}{\setlength  {\cftchapterindent }{\cftlastnumwidth } \setlength  {\cftchapternumwidth }{2em}}
\BKM@entry{id=5,dest={6368617074657262362E30},srcline={2}}{45705C3335356772616665}
\BKM@entry{id=6,dest={6368617074657262372E30},srcline={2}}{526573756D6F}
\BKM@entry{id=7,dest={6368617074657262382E30},srcline={1}}{4162737472616374}
\BKM@entry{id=8,dest={6C6F662E30},srcline={1}}{4C6973746120646520696C75737472615C3334375C3336356573}
\citation{maranhao2004}
\citation{maranhao2004}
\@writefile{toc}{\setlength  {\cftchapterindent }{\cftlastnumwidth } \setlength  {\cftchapternumwidth }{2em}}
\@writefile{brf}{\backcite{maranhao2004}{{15}{(document)}{Doc-Start}}}
\@writefile{brf}{\backcite{maranhao2004}{{15}{(document)}{Doc-Start}}}
\BKM@entry{id=9,dest={6C6F742E30},srcline={4}}{4C6973746120646520746162656C6173}
\@writefile{toc}{\setlength  {\cftchapterindent }{\cftlastnumwidth } \setlength  {\cftchapternumwidth }{2em}}
\BKM@entry{id=10,dest={746F632E30},srcline={1}}{53756D5C33343172696F}
\@writefile{toc}{\setlength  {\cftchapterindent }{\cftlastnumwidth } \setlength  {\cftchapternumwidth }{2em}}
\BKM@entry{id=11,dest={636861707465722E31},srcline={1}}{496E74726F64755C3334375C3334336F}
\citation{morrisbrandon1994}
\citation{morrisbrandon1994}
\citation{maranhao2004}
\citation{maranhao2004}
\citation{maranhao2004}
\citation{maranhao2004}
\citation{maranhao2004}
\citation{davenport1994}
\@writefile{toc}{\setlength  {\cftchapterindent }{0em} \setlength  {\cftchapternumwidth }{\cftlastnumwidth }}
\@writefile{toc}{\contentsline {chapter}{\chapternumberline {1}\MakeTextUppercase  {Introdu\IeC {\c c}\IeC {\~a}o}}{21}{chapter.1}}
\@writefile{brf}{\backcite{morrisbrandon1994}{{21}{1}{chapter.1}}}
\@writefile{brf}{\backcite{morrisbrandon1994}{{21}{1}{chapter.1}}}
\@writefile{brf}{\backcite{maranhao2004}{{21}{1}{chapter.1}}}
\newlabel{focofuncional}{{\M@TitleReference {1}{\MakeTextUppercase  {Introdu\IeC {\c c}\IeC {\~a}o}}}{21}{Introdução}{chapter.1}{}}
\@writefile{lof}{\contentsline {figure}{\numberline {1}{\ignorespaces Foco em fun\IeC {\c c}\IeC {\~o}es - adaptado de \cite  {maranhao2004}}}{21}{figure.1.1}}
\@writefile{brf}{\backcite{maranhao2004}{{21}{1}{figure.1.1}}}
\citation{ries2012}
\citation{bandeira2015}
\BKM@entry{id=12,dest={73656374696F6E2E312E31},srcline={34}}{4F626A657469766F73}
\newlabel{focoprocesso}{{\M@TitleReference {1}{\MakeTextUppercase  {Introdu\IeC {\c c}\IeC {\~a}o}}}{22}{Introdução}{figure.1.1}{}}
\@writefile{lof}{\contentsline {figure}{\numberline {2}{\ignorespaces Foco em processos - adaptado de \cite  {maranhao2004}}}{22}{figure.1.2}}
\@writefile{brf}{\backcite{maranhao2004}{{22}{2}{figure.1.2}}}
\@writefile{brf}{\backcite{davenport1994}{{22}{1}{figure.1.2}}}
\@writefile{brf}{\backcite{ries2012}{{22}{1}{figure.1.2}}}
\@writefile{brf}{\backcite{bandeira2015}{{22}{1}{figure.1.2}}}
\BKM@entry{id=13,dest={73656374696F6E2E312E32},srcline={58}}{4F7267616E697A615C3334375C3334336F20646F2074726162616C686F}
\@writefile{toc}{\contentsline {section}{\numberline {1.1}Objetivos}{23}{section.1.1}}
\@writefile{toc}{\contentsline {section}{\numberline {1.2}Organiza\IeC {\c c}\IeC {\~a}o do trabalho}{23}{section.1.2}}
\BKM@entry{id=14,dest={636861707465722E32},srcline={1}}{50726F636573736F73}
\BKM@entry{id=15,dest={73656374696F6E2E322E31},srcline={4}}{446566696E695C3334375C3334336F206520676572656E6369616D656E746F2064652070726F636573736F}
\citation{harmon2004}
\citation{davenport1994}
\citation{maranhao2004}
\BKM@entry{id=16,dest={73656374696F6E2E322E32},srcline={35}}{4175746F6D6174697A615C3334375C3334336F20646F732070726F636573736F7320706F72206D65696F206461205465636E6F6C6F67696120646120496E666F726D615C3334375C3334336F}
\citation{davenport1994}
\@writefile{toc}{\setlength  {\cftchapterindent }{0em} \setlength  {\cftchapternumwidth }{\cftlastnumwidth }}
\@writefile{toc}{\contentsline {chapter}{\chapternumberline {2}\MakeTextUppercase  {Processos}}{25}{chapter.2}}
\@writefile{toc}{\contentsline {section}{\numberline {2.1}Defini\IeC {\c c}\IeC {\~a}o e gerenciamento de processo}{25}{section.2.1}}
\@writefile{brf}{\backcite{harmon2004}{{25}{2.1}{section.2.1}}}
\@writefile{brf}{\backcite{davenport1994}{{25}{2.1}{section.2.1}}}
\@writefile{brf}{\backcite{maranhao2004}{{25}{2.1}{section.2.1}}}
\newlabel{tabprocesso}{{\M@TitleReference {2.1}{Defini\IeC {\c c}\IeC {\~a}o e gerenciamento de processo}}{25}{Definição e gerenciamento de processo}{section.2.1}{}}
\@writefile{lot}{\contentsline {table}{\numberline {1}{\ignorespaces Passos para mapeamento, avalia\IeC {\c c}\IeC {\~a}o e otimiza\IeC {\c c}\IeC {\~a}o do processo}}{25}{table.2.1}}
\BKM@entry{id=17,dest={73656374696F6E2E322E33},srcline={56}}{50726F636573736F73206E612061675C3335326E636961206465207075626C69636964616465206469676974616C}
\@writefile{toc}{\contentsline {section}{\numberline {2.2}Automatiza\IeC {\c c}\IeC {\~a}o dos processos por meio da Tecnologia da Informa\IeC {\c c}\IeC {\~a}o}{26}{section.2.2}}
\@writefile{brf}{\backcite{davenport1994}{{26}{2.2}{section.2.2}}}
\newlabel{tabautomatizacao}{{\M@TitleReference {2.2}{Automatiza\IeC {\c c}\IeC {\~a}o dos processos por meio da Tecnologia da Informa\IeC {\c c}\IeC {\~a}o}}{26}{Automatização dos processos por meio da Tecnologia da Informação}{section.2.2}{}}
\@writefile{lot}{\contentsline {table}{\numberline {2}{\ignorespaces Atividades para a automatiza\IeC {\c c}\IeC {\~a}o de processos}}{26}{table.2.2}}
\@writefile{toc}{\contentsline {section}{\numberline {2.3}Processos na ag\IeC {\^e}ncia de publicidade digital}{26}{section.2.3}}
\newlabel{tabprocessoate6}{{\M@TitleReference {2.3}{Processos na ag\IeC {\^e}ncia de publicidade digital}}{26}{Processos na agência de publicidade digital}{section.2.3}{}}
\@writefile{lot}{\contentsline {table}{\numberline {3}{\ignorespaces Identifica\IeC {\c c}\IeC {\~a}o dos 6 primeiros passos no processo}}{26}{table.2.3}}
\newlabel{processo1}{{\M@TitleReference {2.3}{Processos na ag\IeC {\^e}ncia de publicidade digital}}{27}{Processos na agência de publicidade digital}{table.2.3}{}}
\@writefile{lof}{\contentsline {figure}{\numberline {3}{\ignorespaces Parte 1 do processo de divulga\IeC {\c c}\IeC {\~a}o em uma empresa digital}}{27}{figure.2.3}}
\newlabel{processo2}{{\M@TitleReference {2.3}{Processos na ag\IeC {\^e}ncia de publicidade digital}}{28}{Processos na agência de publicidade digital}{figure.2.3}{}}
\@writefile{lof}{\contentsline {figure}{\numberline {4}{\ignorespaces Parte 2 do processo de divulga\IeC {\c c}\IeC {\~a}o em uma empresa digital}}{28}{figure.2.4}}
\newlabel{processo3}{{\M@TitleReference {2.3}{Processos na ag\IeC {\^e}ncia de publicidade digital}}{28}{Processos na agência de publicidade digital}{figure.2.4}{}}
\@writefile{lof}{\contentsline {figure}{\numberline {5}{\ignorespaces Parte 3 do processo de divulga\IeC {\c c}\IeC {\~a}o em uma empresa digital}}{28}{figure.2.5}}
\newlabel{processo4}{{\M@TitleReference {2.3}{Processos na ag\IeC {\^e}ncia de publicidade digital}}{29}{Processos na agência de publicidade digital}{figure.2.5}{}}
\@writefile{lof}{\contentsline {figure}{\numberline {6}{\ignorespaces Parte 4 do processo de divulga\IeC {\c c}\IeC {\~a}o em uma empresa digital}}{29}{figure.2.6}}
\newlabel{processo5}{{\M@TitleReference {2.3}{Processos na ag\IeC {\^e}ncia de publicidade digital}}{29}{Processos na agência de publicidade digital}{figure.2.6}{}}
\@writefile{lof}{\contentsline {figure}{\numberline {7}{\ignorespaces Parte 5 do processo de divulga\IeC {\c c}\IeC {\~a}o em uma empresa digital}}{29}{figure.2.7}}
\newlabel{processo6}{{\M@TitleReference {2.3}{Processos na ag\IeC {\^e}ncia de publicidade digital}}{30}{Processos na agência de publicidade digital}{figure.2.7}{}}
\@writefile{lof}{\contentsline {figure}{\numberline {8}{\ignorespaces Parte 6 do processo de divulga\IeC {\c c}\IeC {\~a}o em uma empresa digital}}{30}{figure.2.8}}
\newlabel{tabautomatizacaoident}{{\M@TitleReference {2.3}{Processos na ag\IeC {\^e}ncia de publicidade digital}}{31}{Processos na agência de publicidade digital}{figure.2.8}{}}
\@writefile{lot}{\contentsline {table}{\numberline {4}{\ignorespaces Identifica\IeC {\c c}\IeC {\~a}o das atividades para a automatiza\IeC {\c c}\IeC {\~a}o do processo}}{31}{table.2.4}}
\newlabel{tabautomatizacaoidentificado}{{\M@TitleReference {2.3}{Processos na ag\IeC {\^e}ncia de publicidade digital}}{31}{Processos na agência de publicidade digital}{table.2.4}{}}
\@writefile{lot}{\contentsline {table}{\numberline {5}{\ignorespaces Aplica\IeC {\c c}\IeC {\~a}o das atividades para a automatiza\IeC {\c c}\IeC {\~a}o do processo}}{31}{table.2.5}}
\newlabel{processoplat1}{{\M@TitleReference {2.3}{Processos na ag\IeC {\^e}ncia de publicidade digital}}{32}{Processos na agência de publicidade digital}{table.2.5}{}}
\@writefile{lof}{\contentsline {figure}{\numberline {9}{\ignorespaces Parte 1 do processo automatizado de divulga\IeC {\c c}\IeC {\~a}o em uma empresa digital}}{32}{figure.2.9}}
\newlabel{processoplat2}{{\M@TitleReference {2.3}{Processos na ag\IeC {\^e}ncia de publicidade digital}}{32}{Processos na agência de publicidade digital}{figure.2.9}{}}
\@writefile{lof}{\contentsline {figure}{\numberline {10}{\ignorespaces Parte 2 do processo automatizado de divulga\IeC {\c c}\IeC {\~a}o em uma empresa digital}}{32}{figure.2.10}}
\newlabel{processoplat3}{{\M@TitleReference {2.3}{Processos na ag\IeC {\^e}ncia de publicidade digital}}{33}{Processos na agência de publicidade digital}{figure.2.10}{}}
\@writefile{lof}{\contentsline {figure}{\numberline {11}{\ignorespaces Parte 3 do processo automatizado de divulga\IeC {\c c}\IeC {\~a}o em uma empresa digital}}{33}{figure.2.11}}
\newlabel{processoplat4}{{\M@TitleReference {2.3}{Processos na ag\IeC {\^e}ncia de publicidade digital}}{34}{Processos na agência de publicidade digital}{figure.2.11}{}}
\@writefile{lof}{\contentsline {figure}{\numberline {12}{\ignorespaces Parte 4 do processo automatizado de divulga\IeC {\c c}\IeC {\~a}o em uma empresa digital}}{34}{figure.2.12}}
\newlabel{processoagencia}{{\M@TitleReference {2.3}{Processos na ag\IeC {\^e}ncia de publicidade digital}}{35}{Processos na agência de publicidade digital}{figure.2.12}{}}
\@writefile{lof}{\contentsline {figure}{\numberline {13}{\ignorespaces Processo de divulga\IeC {\c c}\IeC {\~a}o em uma empresa digital}}{35}{figure.2.13}}
\newlabel{processoplataforma}{{\M@TitleReference {2.3}{Processos na ag\IeC {\^e}ncia de publicidade digital}}{36}{Processos na agência de publicidade digital}{figure.2.13}{}}
\@writefile{lof}{\contentsline {figure}{\numberline {14}{\ignorespaces Processo automatizado de divulga\IeC {\c c}\IeC {\~a}o em uma empresa digital}}{36}{figure.2.14}}
\BKM@entry{id=18,dest={636861707465722E33},srcline={1}}{50726F706F7374612064652073697374656D6174697A615C3334375C3334336F20646F732070726F636573736F73}
\BKM@entry{id=19,dest={73656374696F6E2E332E31},srcline={6}}{446566696E695C3334375C3334336F20646120706C617461666F726D61}
\BKM@entry{id=20,dest={73656374696F6E2E332E32},srcline={14}}{46756E63696F6E616C69646164657320646120706C617461666F726D61}
\@writefile{toc}{\setlength  {\cftchapterindent }{0em} \setlength  {\cftchapternumwidth }{\cftlastnumwidth }}
\@writefile{toc}{\contentsline {chapter}{\chapternumberline {3}\MakeTextUppercase  {Proposta de sistematiza\IeC {\c c}\IeC {\~a}o dos processos}}{37}{chapter.3}}
\@writefile{toc}{\contentsline {section}{\numberline {3.1}Defini\IeC {\c c}\IeC {\~a}o da plataforma}{37}{section.3.1}}
\@writefile{toc}{\contentsline {section}{\numberline {3.2}Funcionalidades da plataforma}{37}{section.3.2}}
\newlabel{site21}{{\M@TitleReference {3.2}{Funcionalidades da plataforma}}{38}{Funcionalidades da plataforma}{section.3.2}{}}
\@writefile{lof}{\contentsline {figure}{\numberline {15}{\ignorespaces Tela para cadastrar informa\IeC {\c c}\IeC {\~o}es}}{38}{figure.3.15}}
\newlabel{site3}{{\M@TitleReference {3.2}{Funcionalidades da plataforma}}{39}{Funcionalidades da plataforma}{figure.3.15}{}}
\@writefile{lof}{\contentsline {figure}{\numberline {16}{\ignorespaces Tela para cadastrar site}}{39}{figure.3.16}}
\BKM@entry{id=21,dest={636861707465722E34},srcline={1}}{436F6E7369646572615C3334375C3336356573207061726369616973}
\@writefile{toc}{\setlength  {\cftchapterindent }{0em} \setlength  {\cftchapternumwidth }{\cftlastnumwidth }}
\@writefile{toc}{\contentsline {chapter}{\chapternumberline {4}\MakeTextUppercase  {Considera\IeC {\c c}\IeC {\~o}es parciais}}{41}{chapter.4}}
\newlabel{cronogramasimples}{{\M@TitleReference {4}{\MakeTextUppercase  {Considera\IeC {\c c}\IeC {\~o}es parciais}}}{41}{Considerações parciais}{chapter.4}{}}
\@writefile{lof}{\contentsline {figure}{\numberline {17}{\ignorespaces Cronograma e atividades para trabalhos futuros}}{41}{figure.4.17}}
\bibdata{abntex2-options,bibliografia}
\@writefile{toc}{\vspace  {\cftbeforechapterskip }}
\BKM@entry{id=22,dest={73656374696F6E2A2E3131},srcline={3}}{52656665725C3335326E63696173}
\bibcite{bandeira2015}{Bandeira 2015}
\bibciteEXPL{bandeira2015}{Bandeira}
\bibciteIMPL{bandeira2015}{BANDEIRA}
\bibciteYEAR{bandeira2015}{2015}
\bibcite{davenport1994}{Davenport 1994}
\bibciteEXPL{davenport1994}{Davenport}
\bibciteIMPL{davenport1994}{DAVENPORT}
\bibciteYEAR{davenport1994}{1994}
\bibcite{harmon2004}{Harmon 2004}
\bibciteEXPL{harmon2004}{Harmon}
\bibciteIMPL{harmon2004}{HARMON}
\bibciteYEAR{harmon2004}{2004}
\bibcite{maranhao2004}{Maranhao e Macieira 2004}
\bibciteEXPL{maranhao2004}{Maranhao e Macieira}
\bibciteIMPL{maranhao2004}{MARANHAO; MACIEIRA}
\bibciteYEAR{maranhao2004}{2004}
\bibcite{morrisbrandon1994}{Morris e Brandon 1994}
\bibciteEXPL{morrisbrandon1994}{Morris e Brandon}
\bibciteIMPL{morrisbrandon1994}{MORRIS; BRANDON}
\bibciteYEAR{morrisbrandon1994}{1994}
\bibcite{ries2012}{Ries 2012}
\bibciteEXPL{ries2012}{Ries}
\bibciteIMPL{ries2012}{RIES}
\bibciteYEAR{ries2012}{2012}
\@writefile{toc}{\setlength  {\cftchapterindent }{\cftlastnumwidth } \setlength  {\cftchapternumwidth }{2em}}
\@writefile{toc}{\contentsline {chapter}{\uppercase {Refer\^encias}}{43}{section*.11}}
\@switch{AP\^ENDICE} 
\@writefile{toc}{\setlength  {\cftpartindent }{\cftlastnumwidth } \setlength  {\cftpartnumwidth }{2em}}
\@writefile{toc}{\cftinsert {A}}
\BKM@entry{id=23,dest={73656374696F6E2A2E3132},srcline={4}}{41705C3335326E6469636573}
\@writefile{toc}{\contentsline {part}{\uppercase {Ap\^endices}}{45}{section*.12}}
\BKM@entry{id=24,dest={617070656E6469782E41},srcline={5}}{5C3330317265617320646520756D612061675C3335326E636961206469676974616C}
\@writefile{toc}{\setlength  {\cftchapterindent }{0em} \setlength  {\cftchapternumwidth }{\cftlastnumwidth }}
\@writefile{toc}{\setlength  {\cftchapterindent }{\cftlastnumwidth } \setlength  {\cftchapternumwidth }{2em}}
\@writefile{toc}{\cftinsert {A}}
\@writefile{toc}{\contentsline {appendix}{\chapternumberline {A}\MakeTextUppercase  {\IeC {\'A}reas de uma ag\IeC {\^e}ncia digital}}{47}{appendix.A}}
\newlabel{areaadm}{{\M@TitleReference {A}{\MakeTextUppercase  {\IeC {\'A}reas de uma ag\IeC {\^e}ncia digital}}}{47}{Áreas de uma agência digital}{appendix.A}{}}
\@writefile{lof}{\contentsline {figure}{\numberline {18}{\ignorespaces Organograma \IeC {\'A}rea Administrativa}}{47}{figure.A.18}}
\newlabel{areagestao}{{\M@TitleReference {A}{\MakeTextUppercase  {\IeC {\'A}reas de uma ag\IeC {\^e}ncia digital}}}{48}{Áreas de uma agência digital}{figure.A.18}{}}
\@writefile{lof}{\contentsline {figure}{\numberline {19}{\ignorespaces Organograma \IeC {\'A}rea Gest\IeC {\~a}o}}{48}{figure.A.19}}
\newlabel{areacriacao}{{\M@TitleReference {A}{\MakeTextUppercase  {\IeC {\'A}reas de uma ag\IeC {\^e}ncia digital}}}{48}{Áreas de uma agência digital}{figure.A.19}{}}
\@writefile{lof}{\contentsline {figure}{\numberline {20}{\ignorespaces Organograma \IeC {\'A}rea Cria\IeC {\c c}\IeC {\~a}o}}{48}{figure.A.20}}
\BKM@entry{id=25,dest={73656374696F6E2E412E31},srcline={88}}{505C3334317065697320652066756E5C3334375C333635657320656D20756D612061675C3335326E636961206469676974616C}
\newlabel{areaplanejamento}{{\M@TitleReference {A}{\MakeTextUppercase  {\IeC {\'A}reas de uma ag\IeC {\^e}ncia digital}}}{49}{Áreas de uma agência digital}{figure.A.20}{}}
\@writefile{lof}{\contentsline {figure}{\numberline {21}{\ignorespaces Organograma \IeC {\'A}rea Planejamento}}{49}{figure.A.21}}
\newlabel{areamidia}{{\M@TitleReference {A}{\MakeTextUppercase  {\IeC {\'A}reas de uma ag\IeC {\^e}ncia digital}}}{49}{Áreas de uma agência digital}{figure.A.21}{}}
\@writefile{lof}{\contentsline {figure}{\numberline {22}{\ignorespaces Organograma \IeC {\'A}rea M\IeC {\'\i }dia}}{49}{figure.A.22}}
\newlabel{areatecnologia}{{\M@TitleReference {A}{\MakeTextUppercase  {\IeC {\'A}reas de uma ag\IeC {\^e}ncia digital}}}{49}{Áreas de uma agência digital}{figure.A.22}{}}
\@writefile{lof}{\contentsline {figure}{\numberline {23}{\ignorespaces Organograma \IeC {\'A}rea Tecnologia}}{49}{figure.A.23}}
\@writefile{toc}{\contentsline {section}{\numberline {A.1}P\IeC {\'a}peis e fun\IeC {\c c}\IeC {\~o}es em uma ag\IeC {\^e}ncia digital}{50}{section.A.1}}
\BKM@entry{id=26,dest={617070656E6469782E42},srcline={138}}{446F63756D656E74615C3334375C3334336F20646120506C617461666F726D61}
\BKM@entry{id=27,dest={73656374696F6E2E422E31},srcline={142}}{55736572732053746F72696573}
\@writefile{toc}{\setlength  {\cftchapterindent }{0em} \setlength  {\cftchapternumwidth }{\cftlastnumwidth }}
\@writefile{toc}{\setlength  {\cftchapterindent }{\cftlastnumwidth } \setlength  {\cftchapternumwidth }{2em}}
\@writefile{toc}{\cftinsert {A}}
\@writefile{toc}{\contentsline {appendix}{\chapternumberline {B}\MakeTextUppercase  {Documenta\IeC {\c c}\IeC {\~a}o da Plataforma}}{53}{appendix.B}}
\@writefile{toc}{\contentsline {section}{\numberline {B.1}\textit  {Users Stories}}{53}{section.B.1}}
\newlabel{us1}{{\M@TitleReference {B.1}{\textit  {Users Stories}}}{53}{\textit {Users Stories}}{section.B.1}{}}
\@writefile{lot}{\contentsline {table}{\numberline {6}{\ignorespaces Crit\IeC {\'e}rios de aceita\IeC {\c c}\IeC {\~a}o para US001}}{53}{table.B.6}}
\newlabel{us2}{{\M@TitleReference {B.1}{\textit  {Users Stories}}}{54}{\textit {Users Stories}}{table.B.6}{}}
\@writefile{lot}{\contentsline {table}{\numberline {7}{\ignorespaces Crit\IeC {\'e}rios de aceita\IeC {\c c}\IeC {\~a}o para US002}}{54}{table.B.7}}
\newlabel{us3}{{\M@TitleReference {B.1}{\textit  {Users Stories}}}{54}{\textit {Users Stories}}{table.B.7}{}}
\@writefile{lot}{\contentsline {table}{\numberline {8}{\ignorespaces Crit\IeC {\'e}rios de aceita\IeC {\c c}\IeC {\~a}o para US003}}{54}{table.B.8}}
\newlabel{us4}{{\M@TitleReference {B.1}{\textit  {Users Stories}}}{55}{\textit {Users Stories}}{table.B.8}{}}
\@writefile{lot}{\contentsline {table}{\numberline {9}{\ignorespaces Crit\IeC {\'e}rios de aceita\IeC {\c c}\IeC {\~a}o para US004}}{55}{table.B.9}}
\newlabel{us5}{{\M@TitleReference {B.1}{\textit  {Users Stories}}}{55}{\textit {Users Stories}}{table.B.9}{}}
\@writefile{lot}{\contentsline {table}{\numberline {10}{\ignorespaces Crit\IeC {\'e}rios de aceita\IeC {\c c}\IeC {\~a}o para US005}}{55}{table.B.10}}
\BKM@entry{id=28,dest={617070656E6469782E43},srcline={287}}{54656C617320646120706C617461666F726D61}
\@writefile{toc}{\setlength  {\cftchapterindent }{0em} \setlength  {\cftchapternumwidth }{\cftlastnumwidth }}
\@writefile{toc}{\setlength  {\cftchapterindent }{\cftlastnumwidth } \setlength  {\cftchapternumwidth }{2em}}
\@writefile{toc}{\cftinsert {A}}
\@writefile{toc}{\contentsline {appendix}{\chapternumberline {C}\MakeTextUppercase  {Telas da plataforma}}{57}{appendix.C}}
\newlabel{login}{{\M@TitleReference {C}{\MakeTextUppercase  {Telas da plataforma}}}{57}{Telas da plataforma}{appendix.C}{}}
\@writefile{lof}{\contentsline {figure}{\numberline {24}{\ignorespaces Tela de login}}{57}{figure.C.24}}
\newlabel{cadastro}{{\M@TitleReference {C}{\MakeTextUppercase  {Telas da plataforma}}}{58}{Telas da plataforma}{figure.C.24}{}}
\@writefile{lof}{\contentsline {figure}{\numberline {25}{\ignorespaces Tela para cadastrar novo usu\IeC {\'a}rio}}{58}{figure.C.25}}
\newlabel{dashboard}{{\M@TitleReference {C}{\MakeTextUppercase  {Telas da plataforma}}}{58}{Telas da plataforma}{figure.C.25}{}}
\@writefile{lof}{\contentsline {figure}{\numberline {26}{\ignorespaces Tela de \textit  {dashboard}}}{58}{figure.C.26}}
\newlabel{site1}{{\M@TitleReference {C}{\MakeTextUppercase  {Telas da plataforma}}}{59}{Telas da plataforma}{figure.C.26}{}}
\@writefile{lof}{\contentsline {figure}{\numberline {27}{\ignorespaces Tela para cadastrar site - passo 1}}{59}{figure.C.27}}
\newlabel{site2}{{\M@TitleReference {C}{\MakeTextUppercase  {Telas da plataforma}}}{59}{Telas da plataforma}{figure.C.27}{}}
\@writefile{lof}{\contentsline {figure}{\numberline {28}{\ignorespaces Tela para cadastrar site - passo 2}}{59}{figure.C.28}}
\newlabel{site3}{{\M@TitleReference {C}{\MakeTextUppercase  {Telas da plataforma}}}{60}{Telas da plataforma}{figure.C.28}{}}
\@writefile{lof}{\contentsline {figure}{\numberline {29}{\ignorespaces Tela para cadastrar site - passo 3}}{60}{figure.C.29}}
\newlabel{pagamento}{{\M@TitleReference {C}{\MakeTextUppercase  {Telas da plataforma}}}{60}{Telas da plataforma}{figure.C.29}{}}
\@writefile{lof}{\contentsline {figure}{\numberline {30}{\ignorespaces Tela para pagamento via PAGSEGURO}}{60}{figure.C.30}}
\BKM@entry{id=29,dest={617070656E6469782E44},srcline={340}}{43726F6E6F6772616D6120646574616C6861646F}
\@writefile{toc}{\setlength  {\cftchapterindent }{0em} \setlength  {\cftchapternumwidth }{\cftlastnumwidth }}
\@writefile{toc}{\setlength  {\cftchapterindent }{\cftlastnumwidth } \setlength  {\cftchapternumwidth }{2em}}
\@writefile{toc}{\cftinsert {A}}
\@writefile{toc}{\contentsline {appendix}{\chapternumberline {D}\MakeTextUppercase  {Cronograma detalhado}}{61}{appendix.D}}
\newlabel{cronogramadetalhado}{{\M@TitleReference {D}{\MakeTextUppercase  {Cronograma detalhado}}}{61}{Cronograma detalhado}{appendix.D}{}}
\@writefile{lof}{\contentsline {figure}{\numberline {31}{\ignorespaces Cronograma detalhado}}{61}{figure.D.31}}
\newlabel{LastPage}{{}{61}{}{page.61}{}}
\xdef\lastpage@lastpage{61}
\xdef\lastpage@lastpageHy{61}
\bibstyle{abntex2-alf}
\memsetcounter{lastsheet}{63}
\memsetcounter{lastpage}{61}
