\select@language {brazil}
\contentsline {figure}{\numberline {1}{\ignorespaces Foco em fun\IeC {\c c}\IeC {\~o}es - adaptado de \cite {maranhao2004}}}{21}{figure.1.1}
\contentsline {figure}{\numberline {2}{\ignorespaces Foco em processos - adaptado de \cite {maranhao2004}}}{22}{figure.1.2}
\contentsline {figure}{\numberline {3}{\ignorespaces Parte 1 do processo de divulga\IeC {\c c}\IeC {\~a}o em uma empresa digital}}{27}{figure.2.3}
\contentsline {figure}{\numberline {4}{\ignorespaces Parte 2 do processo de divulga\IeC {\c c}\IeC {\~a}o em uma empresa digital}}{28}{figure.2.4}
\contentsline {figure}{\numberline {5}{\ignorespaces Parte 3 do processo de divulga\IeC {\c c}\IeC {\~a}o em uma empresa digital}}{28}{figure.2.5}
\contentsline {figure}{\numberline {6}{\ignorespaces Parte 4 do processo de divulga\IeC {\c c}\IeC {\~a}o em uma empresa digital}}{29}{figure.2.6}
\contentsline {figure}{\numberline {7}{\ignorespaces Parte 5 do processo de divulga\IeC {\c c}\IeC {\~a}o em uma empresa digital}}{29}{figure.2.7}
\contentsline {figure}{\numberline {8}{\ignorespaces Parte 6 do processo de divulga\IeC {\c c}\IeC {\~a}o em uma empresa digital}}{30}{figure.2.8}
\contentsline {figure}{\numberline {9}{\ignorespaces Parte 1 do processo automatizado de divulga\IeC {\c c}\IeC {\~a}o em uma empresa digital}}{32}{figure.2.9}
\contentsline {figure}{\numberline {10}{\ignorespaces Parte 2 do processo automatizado de divulga\IeC {\c c}\IeC {\~a}o em uma empresa digital}}{32}{figure.2.10}
\contentsline {figure}{\numberline {11}{\ignorespaces Parte 3 do processo automatizado de divulga\IeC {\c c}\IeC {\~a}o em uma empresa digital}}{33}{figure.2.11}
\contentsline {figure}{\numberline {12}{\ignorespaces Parte 4 do processo automatizado de divulga\IeC {\c c}\IeC {\~a}o em uma empresa digital}}{34}{figure.2.12}
\contentsline {figure}{\numberline {13}{\ignorespaces Processo de divulga\IeC {\c c}\IeC {\~a}o em uma empresa digital}}{35}{figure.2.13}
\contentsline {figure}{\numberline {14}{\ignorespaces Processo automatizado de divulga\IeC {\c c}\IeC {\~a}o em uma empresa digital}}{36}{figure.2.14}
\contentsline {figure}{\numberline {15}{\ignorespaces Tela para cadastrar informa\IeC {\c c}\IeC {\~o}es}}{38}{figure.3.15}
\contentsline {figure}{\numberline {16}{\ignorespaces Tela para cadastrar site}}{39}{figure.3.16}
\contentsline {figure}{\numberline {17}{\ignorespaces Cronograma e atividades para trabalhos futuros}}{41}{figure.4.17}
\contentsline {figure}{\numberline {18}{\ignorespaces Organograma \IeC {\'A}rea Administrativa}}{47}{figure.A.18}
\contentsline {figure}{\numberline {19}{\ignorespaces Organograma \IeC {\'A}rea Gest\IeC {\~a}o}}{48}{figure.A.19}
\contentsline {figure}{\numberline {20}{\ignorespaces Organograma \IeC {\'A}rea Cria\IeC {\c c}\IeC {\~a}o}}{48}{figure.A.20}
\contentsline {figure}{\numberline {21}{\ignorespaces Organograma \IeC {\'A}rea Planejamento}}{49}{figure.A.21}
\contentsline {figure}{\numberline {22}{\ignorespaces Organograma \IeC {\'A}rea M\IeC {\'\i }dia}}{49}{figure.A.22}
\contentsline {figure}{\numberline {23}{\ignorespaces Organograma \IeC {\'A}rea Tecnologia}}{49}{figure.A.23}
\contentsline {figure}{\numberline {24}{\ignorespaces Tela de login}}{57}{figure.C.24}
\contentsline {figure}{\numberline {25}{\ignorespaces Tela para cadastrar novo usu\IeC {\'a}rio}}{58}{figure.C.25}
\contentsline {figure}{\numberline {26}{\ignorespaces Tela de \textit {dashboard}}}{58}{figure.C.26}
\contentsline {figure}{\numberline {27}{\ignorespaces Tela para cadastrar site - passo 1}}{59}{figure.C.27}
\contentsline {figure}{\numberline {28}{\ignorespaces Tela para cadastrar site - passo 2}}{59}{figure.C.28}
\contentsline {figure}{\numberline {29}{\ignorespaces Tela para cadastrar site - passo 3}}{60}{figure.C.29}
\contentsline {figure}{\numberline {30}{\ignorespaces Tela para pagamento via PAGSEGURO}}{60}{figure.C.30}
\contentsline {figure}{\numberline {31}{\ignorespaces Cronograma detalhado}}{61}{figure.D.31}
